{
	"project_data": "S:\\ECT_LC\\Elioth\\20_Projets\\BAOA129 - Bruneseau Equipe Hardel\\21 - SmartGrid\\2 - Calc\\data",
	"geometry": "D:\\DATA\\F.POUCHAIN\\dev\\geometry\\python\\run.py",
	"climelioth": "D:\\DATA\\F.POUCHAIN\\dev\\climelioth\\python\\run.py",
	"geocad": "D:\\DATA\\F.POUCHAIN\\dev\\geocad\\run.py",
	"solar": "D:\\DATA\\F.POUCHAIN\\dev\\solar\\run.py",
	"weather-import": "D:\\DATA\\F.POUCHAIN\\dev\\weather-import\\run.py",
	"smartgrid": "D:\\DATA\\F.POUCHAIN\\dev\\smartgrid\\python\\run.py",
	"smartgrid_performance": "D:\\DATA\\F.POUCHAIN\\dev\\performance\\python",
	"rscript": "C:\\Program Files\\R\\R-3.6.1\\bin\\Rscript",
	"povray": "C:\\Program Files\\POV-Ray\\v3.7\\bin\\pvengine64.exe"
}